Project 1
…
1) TIDYING

# My datasets were already tidy. So, I will be using
# 'pivot_wider()' to make 'dataset1' untidy, and then use
# 'pivot_longer()' in order to re-tidy it.

# make dataset1 untidy via 'pivot_wider()'
untidy1 <- dataset1 %>% pivot_wider(names_from = "County", values_from = "Quartile...PCP.Ratio")

# re-tidy dataset1 via 'pivot_longer()'
untidy1 %>% pivot_longer(cols = c(1:254), names_to = "County", 
    values_to = "Quartile PCP Ratio")

## # A tibble: 254 x 2
##    County    `Quartile PCP Ratio`
##    <chr>                    <int>
##  1 Anderson                     3
##  2 Andrews                      2
##  3 Angelina                     1
##  4 Aransas                      3
##  5 Archer                       2
##  6 Armstrong                    4
##  7 Atascosa                     4
##  8 Austin                       4
##  9 Bailey                       2
## 10 Bandera                      3
## # … with 244 more rows
…
